week,week_text
1,"No big spreads (>13.5 points) this week. 2 big overs SEAvsGB & OAKvsTEN and the under wins 53% when the Over/Under >50pts. PITvsCLE is the biggest ELO ranking difference. PIT 97% win probability."
2,Stayed tuned for update
3,Stayed tuned for update
4,Stayed tuned for update
5,Stayed tuned for update
6,Stayed tuned for update
7,Stayed tuned for update
8,Stayed tuned for update
9,Stayed tuned for update
10,Stayed tuned for update
11,Stayed tuned for update
12,Stayed tuned for update
13,Stayed tuned for update
14,Stayed tuned for update
15,Stayed tuned for update
16,Stayed tuned for update
17,Stayed tuned for update